//Fill Tile
Fill:0
//TileID,X,Y
3,1,2
8,3,2
9,3,3
0,0,0
2,2,0
3,3,0
4,4,0
5,5,0
6,6,0
7,7,0
8,8,0
9,9,0
10,10,0
11,11,0
2,-1,0
2,-2,1
2,-3,0
2,-4,1
2,-5,0
2,0,1
2,61,1
9,4,4
9,6,5
9,0,6
9,11,5
9,8,7
8,8,6
8,11,4
8,6,4
8,4,3
8,0,5
5,5,8
5,4,8
3,3,7
4,3,8
3,3,6
3,3,5
